2020-10-26T19:35:54.418+0530 [DEBUG] [org.gradle.launcher.daemon.bootstrap.DaemonMain] Assuming the daemon was started with following jvm opts: [--add-opens, java.base/java.util=ALL-UNNAMED, --add-opens, java.base/java.lang=ALL-UNNAMED, --add-opens, java.base/java.lang.invoke=ALL-UNNAMED, --add-opens, java.prefs/java.util.prefs=ALL-UNNAMED, -Xms1g, -Xmx4g, -Dfile.encoding=windows-1252, -Duser.country=US, -Duser.language=en, -Duser.variant]
2020-10-26T19:35:54.485+0530 [DEBUG] [org.gradle.internal.nativeintegration.services.NativeServices] Native-platform posix files integration is not available. Continuing with fallback.
2020-10-26T19:35:54.537+0530 [INFO] [org.gradle.launcher.daemon.server.Daemon] start() called on daemon - DefaultDaemonContext[uid=c30aed20-8f75-49d4-a55e-310641d86bd1,javaHome=D:\jdk11.0.3_7,daemonRegistryDir=D:\GW1010\ClaimCenter\gradle\cache\daemon,pid=2876,idleTimeout=120000,priority=NORMAL,daemonOpts=--add-opens,java.base/java.util=ALL-UNNAMED,--add-opens,java.base/java.lang=ALL-UNNAMED,--add-opens,java.base/java.lang.invoke=ALL-UNNAMED,--add-opens,java.prefs/java.util.prefs=ALL-UNNAMED,-Xms1g,-Xmx4g,-Dfile.encoding=windows-1252,-Duser.country=US,-Duser.language=en,-Duser.variant]
2020-10-26T19:35:54.599+0530 [DEBUG] [org.gradle.internal.remote.internal.inet.InetAddresses] Adding IP addresses for network interface Software Loopback Interface 1
2020-10-26T19:35:54.600+0530 [DEBUG] [org.gradle.internal.remote.internal.inet.InetAddresses] Is this a loopback interface? true
2020-10-26T19:35:54.601+0530 [DEBUG] [org.gradle.internal.remote.internal.inet.InetAddresses] Adding loopback address /127.0.0.1
2020-10-26T19:35:54.601+0530 [DEBUG] [org.gradle.internal.remote.internal.inet.InetAddresses] Adding loopback address /0:0:0:0:0:0:0:1
2020-10-26T19:35:54.602+0530 [DEBUG] [org.gradle.internal.remote.internal.inet.InetAddresses] Adding IP addresses for network interface Amazon Elastic Network Adapter #2
2020-10-26T19:35:54.602+0530 [DEBUG] [org.gradle.internal.remote.internal.inet.InetAddresses] Is this a loopback interface? false
2020-10-26T19:35:54.603+0530 [DEBUG] [org.gradle.internal.remote.internal.inet.InetAddresses] Adding remote address /10.200.96.97
2020-10-26T19:35:54.603+0530 [DEBUG] [org.gradle.internal.remote.internal.inet.InetAddresses] Adding remote address /fe80:0:0:0:29b9:5772:c885:ca2d%eth0
2020-10-26T19:35:54.603+0530 [DEBUG] [org.gradle.internal.remote.internal.inet.InetAddresses] Adding IP addresses for network interface Microsoft Kernel Debug Network Adapter
2020-10-26T19:35:54.604+0530 [DEBUG] [org.gradle.internal.remote.internal.inet.InetAddresses] Is this a loopback interface? false
2020-10-26T19:35:54.604+0530 [DEBUG] [org.gradle.internal.remote.internal.inet.InetAddresses] Adding IP addresses for network interface Microsoft ISATAP Adapter
2020-10-26T19:35:54.605+0530 [DEBUG] [org.gradle.internal.remote.internal.inet.InetAddresses] Is this a loopback interface? false
2020-10-26T19:35:54.605+0530 [DEBUG] [org.gradle.internal.remote.internal.inet.InetAddresses] Adding remote address /fe80:0:0:0:0:5efe:ac8:6061%net0
2020-10-26T19:35:54.605+0530 [DEBUG] [org.gradle.internal.remote.internal.inet.InetAddresses] Adding IP addresses for network interface AWS PV Network Device #4
2020-10-26T19:35:54.606+0530 [DEBUG] [org.gradle.internal.remote.internal.inet.InetAddresses] Is this a loopback interface? false
2020-10-26T19:35:54.606+0530 [DEBUG] [org.gradle.internal.remote.internal.inet.InetAddresses] Adding IP addresses for network interface AWS PV Network Device #3
2020-10-26T19:35:54.607+0530 [DEBUG] [org.gradle.internal.remote.internal.inet.InetAddresses] Is this a loopback interface? false
2020-10-26T19:35:54.607+0530 [DEBUG] [org.gradle.internal.remote.internal.inet.InetAddresses] Adding IP addresses for network interface Teredo Tunneling Pseudo-Interface
2020-10-26T19:35:54.608+0530 [DEBUG] [org.gradle.internal.remote.internal.inet.InetAddresses] Is this a loopback interface? false
2020-10-26T19:35:54.608+0530 [DEBUG] [org.gradle.internal.remote.internal.inet.InetAddresses] Adding IP addresses for network interface Microsoft ISATAP Adapter #2
2020-10-26T19:35:54.609+0530 [DEBUG] [org.gradle.internal.remote.internal.inet.InetAddresses] Is this a loopback interface? false
2020-10-26T19:35:54.609+0530 [DEBUG] [org.gradle.internal.remote.internal.inet.InetAddresses] Adding remote address /fe80:0:0:0:0:5efe:ac1f:574c%net2
2020-10-26T19:35:54.609+0530 [DEBUG] [org.gradle.internal.remote.internal.inet.InetAddresses] Adding IP addresses for network interface Amazon Elastic Network Adapter
2020-10-26T19:35:54.610+0530 [DEBUG] [org.gradle.internal.remote.internal.inet.InetAddresses] Is this a loopback interface? false
2020-10-26T19:35:54.610+0530 [DEBUG] [org.gradle.internal.remote.internal.inet.InetAddresses] Adding remote address /172.31.87.76
2020-10-26T19:35:54.610+0530 [DEBUG] [org.gradle.internal.remote.internal.inet.InetAddresses] Adding remote address /fe80:0:0:0:168:e741:a40d:d0ac%eth4
2020-10-26T19:35:54.610+0530 [DEBUG] [org.gradle.internal.remote.internal.inet.InetAddresses] Adding IP addresses for network interface Amazon Elastic Network Adapter #2-WFP Native MAC Layer LightWeight Filter-0000
2020-10-26T19:35:54.611+0530 [DEBUG] [org.gradle.internal.remote.internal.inet.InetAddresses] Is this a loopback interface? false
2020-10-26T19:35:54.611+0530 [DEBUG] [org.gradle.internal.remote.internal.inet.InetAddresses] Adding IP addresses for network interface Amazon Elastic Network Adapter #2-QoS Packet Scheduler-0000
2020-10-26T19:35:54.612+0530 [DEBUG] [org.gradle.internal.remote.internal.inet.InetAddresses] Is this a loopback interface? false
2020-10-26T19:35:54.612+0530 [DEBUG] [org.gradle.internal.remote.internal.inet.InetAddresses] Adding IP addresses for network interface Amazon Elastic Network Adapter #2-WFP 802.3 MAC Layer LightWeight Filter-0000
2020-10-26T19:35:54.613+0530 [DEBUG] [org.gradle.internal.remote.internal.inet.InetAddresses] Is this a loopback interface? false
2020-10-26T19:35:54.613+0530 [DEBUG] [org.gradle.internal.remote.internal.inet.InetAddresses] Adding IP addresses for network interface Amazon Elastic Network Adapter-WFP Native MAC Layer LightWeight Filter-0000
2020-10-26T19:35:54.614+0530 [DEBUG] [org.gradle.internal.remote.internal.inet.InetAddresses] Is this a loopback interface? false
2020-10-26T19:35:54.614+0530 [DEBUG] [org.gradle.internal.remote.internal.inet.InetAddresses] Adding IP addresses for network interface Amazon Elastic Network Adapter-QoS Packet Scheduler-0000
2020-10-26T19:35:54.615+0530 [DEBUG] [org.gradle.internal.remote.internal.inet.InetAddresses] Is this a loopback interface? false
2020-10-26T19:35:54.615+0530 [DEBUG] [org.gradle.internal.remote.internal.inet.InetAddresses] Adding IP addresses for network interface Amazon Elastic Network Adapter-WFP 802.3 MAC Layer LightWeight Filter-0000
2020-10-26T19:35:54.616+0530 [DEBUG] [org.gradle.internal.remote.internal.inet.InetAddresses] Is this a loopback interface? false
2020-10-26T19:35:54.618+0530 [DEBUG] [org.gradle.internal.remote.internal.inet.TcpIncomingConnector] Listening on [bc051c53-3b38-4f53-82a6-3c5e033838f8 port:51203, addresses:[/127.0.0.1, /0:0:0:0:0:0:0:1]].
2020-10-26T19:35:54.627+0530 [DEBUG] [org.gradle.launcher.daemon.server.Daemon] Daemon starting at: Mon Oct 26 19:35:54 IST 2020, with address: [bc051c53-3b38-4f53-82a6-3c5e033838f8 port:51203, addresses:[/127.0.0.1, /0:0:0:0:0:0:0:1]]
2020-10-26T19:35:54.628+0530 [INFO] [org.gradle.launcher.daemon.server.DaemonRegistryUpdater] Advertising the daemon address to the clients: [bc051c53-3b38-4f53-82a6-3c5e033838f8 port:51203, addresses:[/127.0.0.1, /0:0:0:0:0:0:0:1]]
2020-10-26T19:35:54.628+0530 [DEBUG] [org.gradle.launcher.daemon.server.DaemonRegistryUpdater] Advertised daemon context: DefaultDaemonContext[uid=c30aed20-8f75-49d4-a55e-310641d86bd1,javaHome=D:\jdk11.0.3_7,daemonRegistryDir=D:\GW1010\ClaimCenter\gradle\cache\daemon,pid=2876,idleTimeout=120000,priority=NORMAL,daemonOpts=--add-opens,java.base/java.util=ALL-UNNAMED,--add-opens,java.base/java.lang=ALL-UNNAMED,--add-opens,java.base/java.lang.invoke=ALL-UNNAMED,--add-opens,java.prefs/java.util.prefs=ALL-UNNAMED,-Xms1g,-Xmx4g,-Dfile.encoding=windows-1252,-Duser.country=US,-Duser.language=en,-Duser.variant]
2020-10-26T19:35:54.629+0530 [DEBUG] [org.gradle.launcher.daemon.registry.PersistentDaemonRegistry] Storing daemon address: [bc051c53-3b38-4f53-82a6-3c5e033838f8 port:51203, addresses:[/127.0.0.1, /0:0:0:0:0:0:0:1]], context: DefaultDaemonContext[uid=c30aed20-8f75-49d4-a55e-310641d86bd1,javaHome=D:\jdk11.0.3_7,daemonRegistryDir=D:\GW1010\ClaimCenter\gradle\cache\daemon,pid=2876,idleTimeout=120000,priority=NORMAL,daemonOpts=--add-opens,java.base/java.util=ALL-UNNAMED,--add-opens,java.base/java.lang=ALL-UNNAMED,--add-opens,java.base/java.lang.invoke=ALL-UNNAMED,--add-opens,java.prefs/java.util.prefs=ALL-UNNAMED,-Xms1g,-Xmx4g,-Dfile.encoding=windows-1252,-Duser.country=US,-Duser.language=en,-Duser.variant]
2020-10-26T19:35:54.643+0530 [DEBUG] [org.gradle.cache.internal.DefaultFileLockManager] Waiting to acquire exclusive lock on daemon addresses registry.
2020-10-26T19:35:54.646+0530 [DEBUG] [org.gradle.cache.internal.DefaultFileLockManager] Lock acquired on daemon addresses registry.
2020-10-26T19:35:54.650+0530 [DEBUG] [org.gradle.cache.internal.DefaultFileLockManager] Releasing lock on daemon addresses registry.
2020-10-26T19:35:54.651+0530 [LIFECYCLE] [org.gradle.launcher.daemon.server.Daemon] Daemon server started.
2020-10-26T19:35:54.652+0530 [DEBUG] [org.gradle.launcher.daemon.bootstrap.DaemonStartupCommunication] Completed writing the daemon greeting. Closing streams...
2020-10-26T19:35:54.657+0530 [DEBUG] [org.gradle.launcher.daemon.server.Daemon] stopOnExpiration() called on daemon
2020-10-26T19:35:54.658+0530 [DEBUG] [org.gradle.launcher.daemon.server.Daemon] awaitExpiration() called on daemon
2020-10-26T19:35:54.659+0530 [DEBUG] [org.gradle.launcher.daemon.server.DaemonStateCoordinator] daemon is running. Sleeping until state changes.
2020-10-26T19:35:54.722+0530 [DEBUG] [org.gradle.internal.remote.internal.inet.TcpIncomingConnector] Accepted connection from /127.0.0.1:51204 to /127.0.0.1:51203.
2020-10-26T19:35:54.776+0530 [DEBUG] [org.gradle.launcher.daemon.server.SynchronizedDispatchConnection] thread 24: received class org.gradle.launcher.daemon.protocol.Build
2020-10-26T19:35:54.777+0530 [DEBUG] [org.gradle.launcher.daemon.server.DefaultDaemonConnection] thread 24: Received non-IO message from client: Build{id=530f1db2-24dc-451f-badd-4e794caaa1af, currentDir=D:\GW1010\ClaimCenter}
2020-10-26T19:35:54.777+0530 [INFO] [org.gradle.launcher.daemon.server.DefaultIncomingConnectionHandler] Received command: Build{id=530f1db2-24dc-451f-badd-4e794caaa1af, currentDir=D:\GW1010\ClaimCenter}.
2020-10-26T19:35:54.777+0530 [DEBUG] [org.gradle.launcher.daemon.server.DefaultIncomingConnectionHandler] Starting executing command: Build{id=530f1db2-24dc-451f-badd-4e794caaa1af, currentDir=D:\GW1010\ClaimCenter} with connection: socket connection from /127.0.0.1:51203 to /127.0.0.1:51204.
2020-10-26T19:35:54.780+0530 [ERROR] [org.gradle.launcher.daemon.server.DaemonStateCoordinator] Command execution: started DaemonCommandExecution[command = Build{id=530f1db2-24dc-451f-badd-4e794caaa1af, currentDir=D:\GW1010\ClaimCenter}, connection = DefaultDaemonConnection: socket connection from /127.0.0.1:51203 to /127.0.0.1:51204] after 0.0 minutes of idle
2020-10-26T19:35:54.780+0530 [INFO] [org.gradle.launcher.daemon.server.DaemonRegistryUpdater] Marking the daemon as busy, address: [bc051c53-3b38-4f53-82a6-3c5e033838f8 port:51203, addresses:[/127.0.0.1, /0:0:0:0:0:0:0:1]]
2020-10-26T19:35:54.780+0530 [DEBUG] [org.gradle.launcher.daemon.registry.PersistentDaemonRegistry] Marking busy by address: [bc051c53-3b38-4f53-82a6-3c5e033838f8 port:51203, addresses:[/127.0.0.1, /0:0:0:0:0:0:0:1]]
2020-10-26T19:35:54.781+0530 [DEBUG] [org.gradle.cache.internal.DefaultFileLockManager] Waiting to acquire exclusive lock on daemon addresses registry.
2020-10-26T19:35:54.781+0530 [DEBUG] [org.gradle.cache.internal.DefaultFileLockManager] Lock acquired on daemon addresses registry.
2020-10-26T19:35:54.782+0530 [DEBUG] [org.gradle.cache.internal.DefaultFileLockManager] Releasing lock on daemon addresses registry.
2020-10-26T19:35:54.783+0530 [DEBUG] [org.gradle.launcher.daemon.server.DaemonStateCoordinator] resetting idle timer
2020-10-26T19:35:54.783+0530 [DEBUG] [org.gradle.launcher.daemon.server.DaemonStateCoordinator] daemon is running. Sleeping until state changes.
2020-10-26T19:35:54.784+0530 [INFO] [org.gradle.launcher.daemon.server.exec.StartBuildOrRespondWithBusy] Daemon is about to start building Build{id=530f1db2-24dc-451f-badd-4e794caaa1af, currentDir=D:\GW1010\ClaimCenter}. Dispatching build started information...
2020-10-26T19:35:54.784+0530 [DEBUG] [org.gradle.launcher.daemon.server.SynchronizedDispatchConnection] thread 26: dispatching class org.gradle.launcher.daemon.protocol.BuildStarted
2020-10-26T19:35:54.786+0530 [DEBUG] [org.gradle.launcher.daemon.server.exec.EstablishBuildEnvironment] Configuring env variables: {USERDOMAIN_ROAMINGPROFILE=DOMAIN, PROCESSOR_LEVEL=6, SESSIONNAME=Console, ALLUSERSPROFILE=C:\ProgramData, PROCESSOR_ARCHITECTURE=AMD64, STXHD_ACCOUNT_ID=180699916525, PSModulePath=C:\Program Files\WindowsPowerShell\Modules;C:\Windows\system32\WindowsPowerShell\v1.0\Modules;C:\Program Files (x86)\AWS Tools\PowerShell\;C:\Program Files (x86)\Microsoft SQL Server\140\Tools\PowerShell\Modules\, SystemDrive=C:, JRE_HOME=D:\jdk11.0.3_7, STXHD_INSTANCE_ID=i-0de9aae6df5b41ae8, DIRNAME=D:\GW1010\ClaimCenter\, USERNAME=HarishB1, USERDNSDOMAIN=CDA.CORP, CMD_LINE_ARGS=studio, ProgramFiles(x86)=C:\Program Files (x86), APP_HOME=D:\GW1010\ClaimCenter\, DEFAULT_JVM_OPTS="-Xmx1g", PATHEXT=.COM;.EXE;.BAT;.CMD;.VBS;.VBE;.JS;.JSE;.WSF;.WSH;.MSC, STXHD_PERFORMANCE=SPEED, ProgramData=C:\ProgramData, ProgramW6432=C:\Program Files, HOMEPATH=\Users\HarishB1, PROCESSOR_IDENTIFIER=Intel64 Family 6 Model 85 Stepping 7, GenuineIntel, ProgramFiles=C:\Program Files, PUBLIC=C:\Users\Public, windir=C:\Windows, =::=::\, _SKIP=2, LOCALAPPDATA=D:\Users\HarishB1\AppData\Local, USERDOMAIN=DOMAIN, LOGONSERVER=\\A049NP-DC, JAVA_HOME=D:\jdk11.0.3_7, PROMPT=$P$G, ANT_HOME=D:\Guidewire\apache-ant-1.8.2, APPDATA=D:\Users\HarishB1\AppData\Roaming, JAVA_EXE=D:\jdk11.0.3_7/bin/java.exe, STXHD_REGION=us-west-2, CommonProgramFiles=C:\Program Files\Common Files, Path=D:\jdk11.0.3_7\bin;C:\Windows\system32;C:\Windows;C:\Windows\System32\Wbem;C:\Windows\System32\WindowsPowerShell\v1.0\;C:\Program Files\Amazon\cfn-bootstrap\;C:\Program Files\Microsoft SQL Server\Client SDK\ODBC\130\Tools\Binn\;C:\Program Files (x86)\Microsoft SQL Server\140\Tools\Binn\;C:\Program Files\Microsoft SQL Server\140\Tools\Binn\;C:\Program Files\Microsoft SQL Server\140\DTS\Binn\;C:\Program Files (x86)\Microsoft SQL Server\Client SDK\ODBC\130\Tools\Binn\;C:\Program Files (x86)\Microsoft SQL Server\140\DTS\Binn\;C:\Program Files (x86)\Microsoft SQL Server\140\Tools\Binn\ManagementStudio\;C:\Program Files\Git\cmd;D:\Guidewire\apache-ant-1.8.2\bin;C:\Program Files\TortoiseGit\bin;D:\Users\HarishB1\AppData\Local\Microsoft\WindowsApps;, OS=Windows_NT, COMPUTERNAME=EC2AMAZ-0VHQIIS, PROCESSOR_REVISION=5507, CLASSPATH=D:\GW1010\ClaimCenter\\gradle\wrapper\gradle-wrapper.jar, CommonProgramW6432=C:\Program Files\Common Files, ComSpec=C:\Windows\system32\cmd.exe, APP_BASE_NAME=gwb, =D:=D:\GW1010\ClaimCenter, SystemRoot=C:\Windows, TEMP=D:\Users\HarishB1\AppData\Local\Temp\1, HOMEDRIVE=D:, USERPROFILE=D:\Users\HarishB1, TMP=D:\Users\HarishB1\AppData\Local\Temp\1, CommonProgramFiles(x86)=C:\Program Files (x86)\Common Files, NUMBER_OF_PROCESSORS=8}
2020-10-26T19:35:54.792+0530 [DEBUG] [org.gradle.launcher.daemon.server.exec.LogToClient] About to start relaying all logs to the client via the connection.
2020-10-26T19:35:54.792+0530 [INFO] [org.gradle.launcher.daemon.server.exec.LogToClient] The client will now receive all logging from the daemon (pid: 2876). The daemon log file: D:\GW1010\ClaimCenter\gradle\cache\daemon\6.0.1\daemon-2876.out.log
2020-10-26T19:35:54.794+0530 [DEBUG] [org.gradle.launcher.daemon.server.exec.RequestStopIfSingleUsedDaemon] Requesting daemon stop after processing Build{id=530f1db2-24dc-451f-badd-4e794caaa1af, currentDir=D:\GW1010\ClaimCenter}
2020-10-26T19:35:54.794+0530 [LIFECYCLE] [org.gradle.launcher.daemon.server.DaemonStateCoordinator] Daemon will be stopped at the end of the build stopping after processing
2020-10-26T19:35:54.794+0530 [DEBUG] [org.gradle.launcher.daemon.server.DaemonStateCoordinator] Stop as soon as idle requested. The daemon is busy: true
2020-10-26T19:35:54.794+0530 [DEBUG] [org.gradle.launcher.daemon.server.DaemonStateCoordinator] daemon stop has been requested. Sleeping until state changes.
2020-10-26T19:35:54.799+0530 [DEBUG] [org.gradle.launcher.daemon.server.exec.ExecuteBuild] The daemon has started executing the build.
2020-10-26T19:35:54.800+0530 [DEBUG] [org.gradle.launcher.daemon.server.exec.ExecuteBuild] Executing build with daemon context: DefaultDaemonContext[uid=c30aed20-8f75-49d4-a55e-310641d86bd1,javaHome=D:\jdk11.0.3_7,daemonRegistryDir=D:\GW1010\ClaimCenter\gradle\cache\daemon,pid=2876,idleTimeout=120000,priority=NORMAL,daemonOpts=--add-opens,java.base/java.util=ALL-UNNAMED,--add-opens,java.base/java.lang=ALL-UNNAMED,--add-opens,java.base/java.lang.invoke=ALL-UNNAMED,--add-opens,java.prefs/java.util.prefs=ALL-UNNAMED,-Xms1g,-Xmx4g,-Dfile.encoding=windows-1252,-Duser.country=US,-Duser.language=en,-Duser.variant]
Importing POM com.guidewire.cc:cc-parent:10.1.0
Importing parent POM com.guidewire.cc:cc-all:10.1.0
Importing POM com.guidewire.cc:cc-all:10.1.0
Empty bundle 'localization-codegen' for locale: en_US
HOTSWAP AGENT: 19:36:19.862 INFO (org.hotswap.agent.HotswapAgent) - Loading Hotswap agent {1.4.0} - unlimited runtime class redefinition.
HOTSWAP AGENT: 19:36:20.143 INFO (org.hotswap.agent.config.PluginRegistry) - Discovered plugins: [JdkPlugin, Hotswapper, WatchResources, ClassInitPlugin, AnonymousClassPatch, Hibernate, Hibernate3JPA, Hibernate3, Spring, Jersey1, Jersey2, Jetty, Tomcat, ZK, Logback, Log4j2, MyFaces, Mojarra, Omnifaces, ELResolver, WildFlyELResolver, OsgiEquinox, Owb, Proxy, WebObjects, Weld, JBossModules, ResteasyRegistry, Deltaspike, GlassFish, Vaadin, Wicket, CxfJAXRS, FreeMarker, Undertow, MyBatis]
Starting HotswapAgent 'D:\jdk11.0.3_7\lib\hotswap\hotswap-agent.jar'
D:\GW1010\ClaimCenter\modules\configuration\gsrc\acc\onbase\wsc\OnBaseGetDocWSC\GetDoc.wsdl (0,0): The package [acc.onbase.wsc.OnBaseGetDocWSC] may have case sensitivity issues on case insensitive file systems.  It is suggested to use all lowercase package names
D:\GW1010\ClaimCenter\modules\configuration\gsrc\acc\onbase\wsc\OnBaseWSPWSC\soapservice.wsdl (0,0): The package [acc.onbase.wsc.OnBaseWSPWSC] may have case sensitivity issues on case insensitive file systems.  It is suggested to use all lowercase package names
D:\GW1010\ClaimCenter\modules\configuration\gsrc\com\tdic\plugins\hpexstream\core\webservice\CommandCenter\SOAPGateway.wsdl (0,0): The package [com.tdic.plugins.hpexstream.core.webservice.CommandCenter] may have case sensitivity issues on case insensitive file systems.  It is suggested to use all lowercase package names
D:\GW1010\ClaimCenter\modules\configuration\gsrc\com\tdic\plugins\hpexstream\core\webservice\CommandCenterAction\soap.wsdl (0,0): The package [com.tdic.plugins.hpexstream.core.webservice.CommandCenterAction] may have case sensitivity issues on case insensitive file systems.  It is suggested to use all lowercase package names
Saved 26293 files, runtime is 4.344
Saved 31 files, runtime is 0.062
Generating D:\GW1010\ClaimCenter\.idea\settings\idea.properties file
Generating D:\GW1010\ClaimCenter\.idea\settings\config\options\other.xml file
Generating D:\GW1010\ClaimCenter\.idea\settings\config\options\recentProjects.xml file
HOTSWAP AGENT: 19:39:21.006 INFO (org.hotswap.agent.HotswapAgent) - Loading Hotswap agent {1.4.0} - unlimited runtime class redefinition.
HOTSWAP AGENT: 19:39:21.256 INFO (org.hotswap.agent.config.PluginRegistry) - Discovered plugins: [JdkPlugin, Hotswapper, WatchResources, ClassInitPlugin, AnonymousClassPatch, Hibernate, Hibernate3JPA, Hibernate3, Spring, Jersey1, Jersey2, Jetty, Tomcat, ZK, Logback, Log4j2, MyFaces, Mojarra, Omnifaces, ELResolver, WildFlyELResolver, OsgiEquinox, Owb, Proxy, WebObjects, Weld, JBossModules, ResteasyRegistry, Deltaspike, GlassFish, Vaadin, Wicket, CxfJAXRS, FreeMarker, Undertow, MyBatis]
Starting HotswapAgent 'D:\jdk11.0.3_7\lib\hotswap\hotswap-agent.jar'
Using bundled jre: D:\GW1010\ClaimCenter\studio\sdk\jre\jre-win\bin\java.exe

Starting Guidewire Studio...

Deprecated Gradle features were used in this build, making it incompatible with Gradle 7.0.
Use '--warning-mode all' to show the individual deprecation warnings.
See https://docs.gradle.org/6.0.1/userguide/command_line_interface.html#sec:command_line_warnings

BUILD SUCCESSFUL in 3m 30s
14 actionable tasks: 12 executed, 2 up-to-date
2020-10-26T19:39:22.308+0530 [DEBUG] [org.gradle.launcher.daemon.server.exec.ExecuteBuild] The daemon has finished executing the build.
2020-10-26T19:39:22.325+0530 [DEBUG] [org.gradle.launcher.daemon.server.DaemonStateCoordinator] daemon stop has been requested. Sleeping until state changes.
2020-10-26T19:39:22.326+0530 [DEBUG] [org.gradle.launcher.daemon.server.DaemonStateCoordinator] Command execution: finished waiting for DaemonCommandExecution[command = Build{id=530f1db2-24dc-451f-badd-4e794caaa1af, currentDir=D:\GW1010\ClaimCenter}, connection = DefaultDaemonConnection: socket connection from /127.0.0.1:51203 to /127.0.0.1:51204]. Result org.gradle.launcher.daemon.server.DaemonStateCoordinator@6ada00c1 with state StopRequested
2020-10-26T19:39:22.326+0530 [DEBUG] [org.gradle.launcher.daemon.server.DaemonStateCoordinator] Command execution: completed DaemonCommandExecution[command = Build{id=530f1db2-24dc-451f-badd-4e794caaa1af, currentDir=D:\GW1010\ClaimCenter}, connection = DefaultDaemonConnection: socket connection from /127.0.0.1:51203 to /127.0.0.1:51204]
2020-10-26T19:39:22.326+0530 [DEBUG] [org.gradle.launcher.daemon.server.DaemonStateCoordinator] resetting idle timer
2020-10-26T19:39:22.327+0530 [DEBUG] [org.gradle.launcher.daemon.server.DaemonStateCoordinator] Marking daemon stopped due to command completed and stop requested. The daemon is running a build: false
2020-10-26T19:39:22.327+0530 [DEBUG] [org.gradle.launcher.daemon.server.DaemonStateCoordinator] daemon has stopped.
2020-10-26T19:39:22.327+0530 [DEBUG] [org.gradle.launcher.daemon.server.Daemon] stop() called on daemon
2020-10-26T19:39:22.327+0530 [INFO] [org.gradle.launcher.daemon.server.Daemon] Stop requested. Daemon is removing its presence from the registry...
2020-10-26T19:39:22.327+0530 [DEBUG] [org.gradle.launcher.daemon.server.exec.ReturnResult] Daemon is dispatching the build result: Success[value=org.gradle.launcher.exec.BuildActionResult@615bcc68]
2020-10-26T19:39:22.328+0530 [DEBUG] [org.gradle.launcher.daemon.server.SynchronizedDispatchConnection] thread 23: dispatching class org.gradle.launcher.daemon.protocol.Success
2020-10-26T19:39:22.327+0530 [DEBUG] [org.gradle.launcher.daemon.server.DaemonRegistryUpdater] Removing our presence to clients, eg. removing this address from the registry: [bc051c53-3b38-4f53-82a6-3c5e033838f8 port:51203, addresses:[/127.0.0.1, /0:0:0:0:0:0:0:1]]
2020-10-26T19:39:22.328+0530 [DEBUG] [org.gradle.launcher.daemon.server.DefaultIncomingConnectionHandler] Finishing executing command: Build{id=530f1db2-24dc-451f-badd-4e794caaa1af, currentDir=D:\GW1010\ClaimCenter}
2020-10-26T19:39:22.328+0530 [DEBUG] [org.gradle.launcher.daemon.registry.PersistentDaemonRegistry] Removing daemon address: [bc051c53-3b38-4f53-82a6-3c5e033838f8 port:51203, addresses:[/127.0.0.1, /0:0:0:0:0:0:0:1]]
2020-10-26T19:39:22.330+0530 [DEBUG] [org.gradle.cache.internal.DefaultFileLockManager] Waiting to acquire exclusive lock on daemon addresses registry.
2020-10-26T19:39:22.330+0530 [DEBUG] [org.gradle.cache.internal.DefaultFileLockManager] Lock acquired on daemon addresses registry.
2020-10-26T19:39:22.331+0530 [DEBUG] [org.gradle.launcher.daemon.server.SynchronizedDispatchConnection] thread 24: received class org.gradle.launcher.daemon.protocol.CloseInput
2020-10-26T19:39:22.331+0530 [DEBUG] [org.gradle.launcher.daemon.server.DefaultDaemonConnection] thread 24: Received IO message from client: org.gradle.launcher.daemon.protocol.CloseInput@7bca320d
2020-10-26T19:39:22.331+0530 [DEBUG] [org.gradle.launcher.daemon.server.SynchronizedDispatchConnection] thread 24: received class org.gradle.launcher.daemon.protocol.Finished
2020-10-26T19:39:22.332+0530 [DEBUG] [org.gradle.launcher.daemon.server.DefaultDaemonConnection] thread 24: Received non-IO message from client: org.gradle.launcher.daemon.protocol.Finished@16bf4a18
2020-10-26T19:39:22.332+0530 [DEBUG] [org.gradle.launcher.daemon.server.DefaultIncomingConnectionHandler] Received finished message: org.gradle.launcher.daemon.protocol.Finished@16bf4a18
2020-10-26T19:39:22.332+0530 [DEBUG] [org.gradle.cache.internal.DefaultFileLockManager] Releasing lock on daemon addresses registry.
2020-10-26T19:39:22.332+0530 [DEBUG] [org.gradle.launcher.daemon.server.SynchronizedDispatchConnection] thread 23: stopping connection
2020-10-26T19:39:22.332+0530 [DEBUG] [org.gradle.launcher.daemon.server.DaemonRegistryUpdater] Address removed from registry.
2020-10-26T19:39:22.334+0530 [DEBUG] [org.gradle.internal.remote.internal.inet.SocketConnection] Discarding EOFException: java.io.EOFException
2020-10-26T19:39:22.334+0530 [DEBUG] [org.gradle.launcher.daemon.server.SynchronizedDispatchConnection] thread 24: received null
2020-10-26T19:39:22.334+0530 [DEBUG] [org.gradle.launcher.daemon.server.DefaultDaemonConnection] thread 24: Received end-of-input from client.
2020-10-26T19:39:22.334+0530 [DEBUG] [org.gradle.launcher.daemon.server.SynchronizedDispatchConnection] thread 23: stopping connection
2020-10-26T19:39:22.335+0530 [DEBUG] [org.gradle.workers.internal.WorkerDaemonClientsManager] Stopping 1 worker daemon(s).
2020-10-26T19:39:22.973+0530 [DEBUG] [org.gradle.process.internal.DefaultExecHandle] Changing state to: SUCCEEDED
2020-10-26T19:39:22.973+0530 [DEBUG] [org.gradle.process.internal.DefaultExecHandle] Process 'Gradle Worker Daemon 1' finished with exit value 0 (state: SUCCEEDED)
2020-10-26T19:39:22.976+0530 [INFO] [org.gradle.workers.internal.WorkerDaemonClientsManager] Stopped 1 worker daemon(s).
2020-10-26T19:39:22.976+0530 [DEBUG] [org.gradle.cache.internal.LockOnDemandCrossProcessCacheAccess] Releasing file lock for jars (D:\GW1010\ClaimCenter\gradle\cache\caches\jars-3)
2020-10-26T19:39:22.977+0530 [DEBUG] [org.gradle.cache.internal.DefaultFileLockManager] Releasing lock on jars (D:\GW1010\ClaimCenter\gradle\cache\caches\jars-3).
2020-10-26T19:39:22.977+0530 [DEBUG] [org.gradle.cache.internal.DefaultPersistentDirectoryStore] jars (D:\GW1010\ClaimCenter\gradle\cache\caches\jars-3) has last been fully cleaned up 9 hours ago
2020-10-26T19:39:22.986+0530 [DEBUG] [org.gradle.cache.internal.LockOnDemandCrossProcessCacheAccess] Releasing file lock for file hash cache (D:\GW1010\ClaimCenter\gradle\cache\caches\6.0.1\fileHashes)
2020-10-26T19:39:22.987+0530 [DEBUG] [org.gradle.cache.internal.btree.BTreePersistentIndexedCache] Closing cache fileHashes.bin (D:\GW1010\ClaimCenter\gradle\cache\caches\6.0.1\fileHashes\fileHashes.bin)
2020-10-26T19:39:22.987+0530 [DEBUG] [org.gradle.cache.internal.btree.BTreePersistentIndexedCache] Closing cache resourceHashesCache.bin (D:\GW1010\ClaimCenter\gradle\cache\caches\6.0.1\fileHashes\resourceHashesCache.bin)
2020-10-26T19:39:22.987+0530 [DEBUG] [org.gradle.cache.internal.DefaultFileLockManager] Releasing lock on file hash cache (D:\GW1010\ClaimCenter\gradle\cache\caches\6.0.1\fileHashes).
2020-10-26T19:39:22.988+0530 [DEBUG] [org.gradle.cache.internal.DefaultPersistentDirectoryStore] artifact cache (D:\GW1010\ClaimCenter\gradle\cache\caches\modules-2) has last been fully cleaned up 9 hours ago
2020-10-26T19:39:22.988+0530 [DEBUG] [org.gradle.cache.internal.DefaultCacheAccess] Cache artifact cache (D:\GW1010\ClaimCenter\gradle\cache\caches\modules-2) was closed 0 times.
2020-10-26T19:39:22.988+0530 [DEBUG] [org.gradle.cache.internal.DefaultPersistentDirectoryStore] Artifact transforms cache (D:\GW1010\ClaimCenter\gradle\cache\caches\transforms-2) has last been fully cleaned up 9 hours ago
2020-10-26T19:39:22.988+0530 [DEBUG] [org.gradle.cache.internal.DefaultCacheAccess] Cache Artifact transforms cache (D:\GW1010\ClaimCenter\gradle\cache\caches\transforms-2) was closed 0 times.
2020-10-26T19:39:22.990+0530 [DEBUG] [org.gradle.cache.internal.LockOnDemandCrossProcessCacheAccess] Releasing file lock for journal cache (D:\GW1010\ClaimCenter\gradle\cache\caches\journal-1)
2020-10-26T19:39:22.990+0530 [DEBUG] [org.gradle.cache.internal.btree.BTreePersistentIndexedCache] Closing cache file-access.bin (D:\GW1010\ClaimCenter\gradle\cache\caches\journal-1\file-access.bin)
2020-10-26T19:39:22.990+0530 [DEBUG] [org.gradle.cache.internal.DefaultFileLockManager] Releasing lock on journal cache (D:\GW1010\ClaimCenter\gradle\cache\caches\journal-1).
2020-10-26T19:39:22.991+0530 [DEBUG] [org.gradle.cache.internal.DefaultCacheAccess] Cache Generated Gradle JARs cache (D:\GW1010\ClaimCenter\gradle\cache\caches\6.0.1\generated-gradle-jars) was closed 0 times.
2020-10-26T19:39:22.991+0530 [DEBUG] [org.gradle.cache.internal.DefaultFileLockManager] Releasing lock on cache directory workerMain (D:\GW1010\ClaimCenter\gradle\cache\caches\6.0.1\workerMain).
2020-10-26T19:39:22.992+0530 [DEBUG] [org.gradle.cache.internal.LockOnDemandCrossProcessCacheAccess] Releasing file lock for execution history cache (D:\GW1010\ClaimCenter\gradle\cache\caches\6.0.1\executionHistory)
2020-10-26T19:39:22.993+0530 [DEBUG] [org.gradle.cache.internal.DefaultFileLockManager] Releasing lock on execution history cache (D:\GW1010\ClaimCenter\gradle\cache\caches\6.0.1\executionHistory).
2020-10-26T19:39:22.994+0530 [DEBUG] [org.gradle.launcher.daemon.registry.PersistentDaemonRegistry] Removing daemon address: [bc051c53-3b38-4f53-82a6-3c5e033838f8 port:51203, addresses:[/127.0.0.1, /0:0:0:0:0:0:0:1]]
Daemon vm is shutting down... The daemon has exited normally or was terminated in response to a user interrupt.
2020-10-26T19:39:23.004+0530 [DEBUG] [org.gradle.cache.internal.DefaultFileLockManager] Waiting to acquire exclusive lock on daemon addresses registry.
2020-10-26T19:39:23.004+0530 [DEBUG] [org.gradle.cache.internal.DefaultFileLockManager] Lock acquired on daemon addresses registry.
2020-10-26T19:39:23.007+0530 [DEBUG] [org.gradle.cache.internal.DefaultFileLockManager] Releasing lock on daemon addresses registry.
