2020-10-22T20:24:17.988+0530 [DEBUG] [org.gradle.launcher.daemon.bootstrap.DaemonMain] Assuming the daemon was started with following jvm opts: [-Xms1g, -Xmx4g, -Dfile.encoding=windows-1252, -Duser.country=US, -Duser.language=en, -Duser.variant]
2020-10-22T20:24:18.065+0530 [DEBUG] [org.gradle.internal.nativeintegration.services.NativeServices] Native-platform posix files integration is not available. Continuing with fallback.
2020-10-22T20:24:18.134+0530 [INFO] [org.gradle.launcher.daemon.server.Daemon] start() called on daemon - DefaultDaemonContext[uid=ee0e379e-9838-4d9c-bf52-20552b0f7772,javaHome=C:\Program Files\Java\jdk1.8.0_201,daemonRegistryDir=D:\GW1010\ClaimCenter\gradle\cache\daemon,pid=12060,idleTimeout=120000,priority=NORMAL,daemonOpts=-Xms1g,-Xmx4g,-Dfile.encoding=windows-1252,-Duser.country=US,-Duser.language=en,-Duser.variant]
2020-10-22T20:24:18.199+0530 [DEBUG] [org.gradle.internal.remote.internal.inet.InetAddresses] Adding IP addresses for network interface Software Loopback Interface 1
2020-10-22T20:24:18.200+0530 [DEBUG] [org.gradle.internal.remote.internal.inet.InetAddresses] Is this a loopback interface? true
2020-10-22T20:24:18.201+0530 [DEBUG] [org.gradle.internal.remote.internal.inet.InetAddresses] Adding loopback address /127.0.0.1
2020-10-22T20:24:18.202+0530 [DEBUG] [org.gradle.internal.remote.internal.inet.InetAddresses] Adding loopback address /0:0:0:0:0:0:0:1
2020-10-22T20:24:18.208+0530 [DEBUG] [org.gradle.internal.remote.internal.inet.InetAddresses] Adding IP addresses for network interface Amazon Elastic Network Adapter #2
2020-10-22T20:24:18.209+0530 [DEBUG] [org.gradle.internal.remote.internal.inet.InetAddresses] Is this a loopback interface? false
2020-10-22T20:24:18.210+0530 [DEBUG] [org.gradle.internal.remote.internal.inet.InetAddresses] Adding remote address /10.200.96.97
2020-10-22T20:24:18.210+0530 [DEBUG] [org.gradle.internal.remote.internal.inet.InetAddresses] Adding remote address /fe80:0:0:0:29b9:5772:c885:ca2d%eth0
2020-10-22T20:24:18.210+0530 [DEBUG] [org.gradle.internal.remote.internal.inet.InetAddresses] Adding IP addresses for network interface Microsoft Kernel Debug Network Adapter
2020-10-22T20:24:18.211+0530 [DEBUG] [org.gradle.internal.remote.internal.inet.InetAddresses] Is this a loopback interface? false
2020-10-22T20:24:18.211+0530 [DEBUG] [org.gradle.internal.remote.internal.inet.InetAddresses] Adding IP addresses for network interface Microsoft ISATAP Adapter
2020-10-22T20:24:18.212+0530 [DEBUG] [org.gradle.internal.remote.internal.inet.InetAddresses] Is this a loopback interface? false
2020-10-22T20:24:18.212+0530 [DEBUG] [org.gradle.internal.remote.internal.inet.InetAddresses] Adding remote address /fe80:0:0:0:0:5efe:ac8:6061%net0
2020-10-22T20:24:18.212+0530 [DEBUG] [org.gradle.internal.remote.internal.inet.InetAddresses] Adding IP addresses for network interface AWS PV Network Device #4
2020-10-22T20:24:18.213+0530 [DEBUG] [org.gradle.internal.remote.internal.inet.InetAddresses] Is this a loopback interface? false
2020-10-22T20:24:18.213+0530 [DEBUG] [org.gradle.internal.remote.internal.inet.InetAddresses] Adding IP addresses for network interface AWS PV Network Device #3
2020-10-22T20:24:18.214+0530 [DEBUG] [org.gradle.internal.remote.internal.inet.InetAddresses] Is this a loopback interface? false
2020-10-22T20:24:18.214+0530 [DEBUG] [org.gradle.internal.remote.internal.inet.InetAddresses] Adding IP addresses for network interface Teredo Tunneling Pseudo-Interface
2020-10-22T20:24:18.215+0530 [DEBUG] [org.gradle.internal.remote.internal.inet.InetAddresses] Is this a loopback interface? false
2020-10-22T20:24:18.215+0530 [DEBUG] [org.gradle.internal.remote.internal.inet.InetAddresses] Adding IP addresses for network interface Microsoft ISATAP Adapter #2
2020-10-22T20:24:18.216+0530 [DEBUG] [org.gradle.internal.remote.internal.inet.InetAddresses] Is this a loopback interface? false
2020-10-22T20:24:18.216+0530 [DEBUG] [org.gradle.internal.remote.internal.inet.InetAddresses] Adding remote address /fe80:0:0:0:0:5efe:ac1f:574c%net2
2020-10-22T20:24:18.216+0530 [DEBUG] [org.gradle.internal.remote.internal.inet.InetAddresses] Adding IP addresses for network interface Amazon Elastic Network Adapter
2020-10-22T20:24:18.217+0530 [DEBUG] [org.gradle.internal.remote.internal.inet.InetAddresses] Is this a loopback interface? false
2020-10-22T20:24:18.217+0530 [DEBUG] [org.gradle.internal.remote.internal.inet.InetAddresses] Adding remote address /172.31.87.76
2020-10-22T20:24:18.218+0530 [DEBUG] [org.gradle.internal.remote.internal.inet.InetAddresses] Adding remote address /fe80:0:0:0:168:e741:a40d:d0ac%eth4
2020-10-22T20:24:18.218+0530 [DEBUG] [org.gradle.internal.remote.internal.inet.InetAddresses] Adding IP addresses for network interface Amazon Elastic Network Adapter #2-WFP Native MAC Layer LightWeight Filter-0000
2020-10-22T20:24:18.219+0530 [DEBUG] [org.gradle.internal.remote.internal.inet.InetAddresses] Is this a loopback interface? false
2020-10-22T20:24:18.219+0530 [DEBUG] [org.gradle.internal.remote.internal.inet.InetAddresses] Adding IP addresses for network interface Amazon Elastic Network Adapter #2-QoS Packet Scheduler-0000
2020-10-22T20:24:18.219+0530 [DEBUG] [org.gradle.internal.remote.internal.inet.InetAddresses] Is this a loopback interface? false
2020-10-22T20:24:18.220+0530 [DEBUG] [org.gradle.internal.remote.internal.inet.InetAddresses] Adding IP addresses for network interface Amazon Elastic Network Adapter #2-WFP 802.3 MAC Layer LightWeight Filter-0000
2020-10-22T20:24:18.220+0530 [DEBUG] [org.gradle.internal.remote.internal.inet.InetAddresses] Is this a loopback interface? false
2020-10-22T20:24:18.221+0530 [DEBUG] [org.gradle.internal.remote.internal.inet.InetAddresses] Adding IP addresses for network interface Amazon Elastic Network Adapter-WFP Native MAC Layer LightWeight Filter-0000
2020-10-22T20:24:18.221+0530 [DEBUG] [org.gradle.internal.remote.internal.inet.InetAddresses] Is this a loopback interface? false
2020-10-22T20:24:18.222+0530 [DEBUG] [org.gradle.internal.remote.internal.inet.InetAddresses] Adding IP addresses for network interface Amazon Elastic Network Adapter-QoS Packet Scheduler-0000
2020-10-22T20:24:18.222+0530 [DEBUG] [org.gradle.internal.remote.internal.inet.InetAddresses] Is this a loopback interface? false
2020-10-22T20:24:18.222+0530 [DEBUG] [org.gradle.internal.remote.internal.inet.InetAddresses] Adding IP addresses for network interface Amazon Elastic Network Adapter-WFP 802.3 MAC Layer LightWeight Filter-0000
2020-10-22T20:24:18.223+0530 [DEBUG] [org.gradle.internal.remote.internal.inet.InetAddresses] Is this a loopback interface? false
2020-10-22T20:24:18.226+0530 [DEBUG] [org.gradle.internal.remote.internal.inet.TcpIncomingConnector] Listening on [26c3c78d-8d66-45b5-9f39-95c5cb9b8f97 port:52129, addresses:[/127.0.0.1, /0:0:0:0:0:0:0:1]].
2020-10-22T20:24:18.233+0530 [DEBUG] [org.gradle.launcher.daemon.server.Daemon] Daemon starting at: Thu Oct 22 20:24:18 IST 2020, with address: [26c3c78d-8d66-45b5-9f39-95c5cb9b8f97 port:52129, addresses:[/127.0.0.1, /0:0:0:0:0:0:0:1]]
2020-10-22T20:24:18.233+0530 [INFO] [org.gradle.launcher.daemon.server.DaemonRegistryUpdater] Advertising the daemon address to the clients: [26c3c78d-8d66-45b5-9f39-95c5cb9b8f97 port:52129, addresses:[/127.0.0.1, /0:0:0:0:0:0:0:1]]
2020-10-22T20:24:18.233+0530 [DEBUG] [org.gradle.launcher.daemon.server.DaemonRegistryUpdater] Advertised daemon context: DefaultDaemonContext[uid=ee0e379e-9838-4d9c-bf52-20552b0f7772,javaHome=C:\Program Files\Java\jdk1.8.0_201,daemonRegistryDir=D:\GW1010\ClaimCenter\gradle\cache\daemon,pid=12060,idleTimeout=120000,priority=NORMAL,daemonOpts=-Xms1g,-Xmx4g,-Dfile.encoding=windows-1252,-Duser.country=US,-Duser.language=en,-Duser.variant]
2020-10-22T20:24:18.234+0530 [DEBUG] [org.gradle.launcher.daemon.registry.PersistentDaemonRegistry] Storing daemon address: [26c3c78d-8d66-45b5-9f39-95c5cb9b8f97 port:52129, addresses:[/127.0.0.1, /0:0:0:0:0:0:0:1]], context: DefaultDaemonContext[uid=ee0e379e-9838-4d9c-bf52-20552b0f7772,javaHome=C:\Program Files\Java\jdk1.8.0_201,daemonRegistryDir=D:\GW1010\ClaimCenter\gradle\cache\daemon,pid=12060,idleTimeout=120000,priority=NORMAL,daemonOpts=-Xms1g,-Xmx4g,-Dfile.encoding=windows-1252,-Duser.country=US,-Duser.language=en,-Duser.variant]
2020-10-22T20:24:18.254+0530 [DEBUG] [org.gradle.cache.internal.DefaultFileLockManager] Waiting to acquire exclusive lock on daemon addresses registry.
2020-10-22T20:24:18.257+0530 [DEBUG] [org.gradle.cache.internal.DefaultFileLockManager] Lock acquired on daemon addresses registry.
2020-10-22T20:24:18.261+0530 [DEBUG] [org.gradle.cache.internal.DefaultFileLockManager] Releasing lock on daemon addresses registry.
2020-10-22T20:24:18.261+0530 [LIFECYCLE] [org.gradle.launcher.daemon.server.Daemon] Daemon server started.
2020-10-22T20:24:18.262+0530 [DEBUG] [org.gradle.launcher.daemon.bootstrap.DaemonStartupCommunication] Completed writing the daemon greeting. Closing streams...
2020-10-22T20:24:18.268+0530 [DEBUG] [org.gradle.launcher.daemon.server.Daemon] stopOnExpiration() called on daemon
2020-10-22T20:24:18.269+0530 [DEBUG] [org.gradle.launcher.daemon.server.Daemon] awaitExpiration() called on daemon
2020-10-22T20:24:18.269+0530 [DEBUG] [org.gradle.launcher.daemon.server.DaemonStateCoordinator] daemon is running. Sleeping until state changes.
2020-10-22T20:24:18.313+0530 [DEBUG] [org.gradle.internal.remote.internal.inet.TcpIncomingConnector] Accepted connection from /127.0.0.1:52130 to /127.0.0.1:52129.
2020-10-22T20:24:18.357+0530 [DEBUG] [org.gradle.launcher.daemon.server.SynchronizedDispatchConnection] thread 18: received class org.gradle.launcher.daemon.protocol.Build
2020-10-22T20:24:18.357+0530 [DEBUG] [org.gradle.launcher.daemon.server.DefaultDaemonConnection] thread 18: Received non-IO message from client: Build{id=563412c0-3045-4ea8-a783-00cf3aac0817, currentDir=D:\GW1010\ClaimCenter}
2020-10-22T20:24:18.358+0530 [INFO] [org.gradle.launcher.daemon.server.DefaultIncomingConnectionHandler] Received command: Build{id=563412c0-3045-4ea8-a783-00cf3aac0817, currentDir=D:\GW1010\ClaimCenter}.
2020-10-22T20:24:18.358+0530 [DEBUG] [org.gradle.launcher.daemon.server.DefaultIncomingConnectionHandler] Starting executing command: Build{id=563412c0-3045-4ea8-a783-00cf3aac0817, currentDir=D:\GW1010\ClaimCenter} with connection: socket connection from /127.0.0.1:52129 to /127.0.0.1:52130.
2020-10-22T20:24:18.360+0530 [ERROR] [org.gradle.launcher.daemon.server.DaemonStateCoordinator] Command execution: started DaemonCommandExecution[command = Build{id=563412c0-3045-4ea8-a783-00cf3aac0817, currentDir=D:\GW1010\ClaimCenter}, connection = DefaultDaemonConnection: socket connection from /127.0.0.1:52129 to /127.0.0.1:52130] after 0.0 minutes of idle
2020-10-22T20:24:18.360+0530 [INFO] [org.gradle.launcher.daemon.server.DaemonRegistryUpdater] Marking the daemon as busy, address: [26c3c78d-8d66-45b5-9f39-95c5cb9b8f97 port:52129, addresses:[/127.0.0.1, /0:0:0:0:0:0:0:1]]
2020-10-22T20:24:18.360+0530 [DEBUG] [org.gradle.launcher.daemon.registry.PersistentDaemonRegistry] Marking busy by address: [26c3c78d-8d66-45b5-9f39-95c5cb9b8f97 port:52129, addresses:[/127.0.0.1, /0:0:0:0:0:0:0:1]]
2020-10-22T20:24:18.361+0530 [DEBUG] [org.gradle.cache.internal.DefaultFileLockManager] Waiting to acquire exclusive lock on daemon addresses registry.
2020-10-22T20:24:18.361+0530 [DEBUG] [org.gradle.cache.internal.DefaultFileLockManager] Lock acquired on daemon addresses registry.
2020-10-22T20:24:18.363+0530 [DEBUG] [org.gradle.cache.internal.DefaultFileLockManager] Releasing lock on daemon addresses registry.
2020-10-22T20:24:18.364+0530 [DEBUG] [org.gradle.launcher.daemon.server.DaemonStateCoordinator] resetting idle timer
2020-10-22T20:24:18.364+0530 [DEBUG] [org.gradle.launcher.daemon.server.DaemonStateCoordinator] daemon is running. Sleeping until state changes.
2020-10-22T20:24:18.364+0530 [INFO] [org.gradle.launcher.daemon.server.exec.StartBuildOrRespondWithBusy] Daemon is about to start building Build{id=563412c0-3045-4ea8-a783-00cf3aac0817, currentDir=D:\GW1010\ClaimCenter}. Dispatching build started information...
2020-10-22T20:24:18.365+0530 [DEBUG] [org.gradle.launcher.daemon.server.SynchronizedDispatchConnection] thread 20: dispatching class org.gradle.launcher.daemon.protocol.BuildStarted
2020-10-22T20:24:18.366+0530 [DEBUG] [org.gradle.launcher.daemon.server.exec.EstablishBuildEnvironment] Configuring env variables: {USERDOMAIN_ROAMINGPROFILE=DOMAIN, PROCESSOR_LEVEL=6, SESSIONNAME=Console, ALLUSERSPROFILE=C:\ProgramData, PROCESSOR_ARCHITECTURE=AMD64, STXHD_ACCOUNT_ID=180699916525, PSModulePath=C:\Program Files\WindowsPowerShell\Modules;C:\Windows\system32\WindowsPowerShell\v1.0\Modules;C:\Program Files (x86)\AWS Tools\PowerShell\;C:\Program Files (x86)\Microsoft SQL Server\140\Tools\PowerShell\Modules\, SystemDrive=C:, JRE_HOME=C:\Program Files\Java\jdk1.8.0_201, STXHD_INSTANCE_ID=i-0de9aae6df5b41ae8, DIRNAME=D:\GW1010\ClaimCenter\, USERNAME=HarishB1, USERDNSDOMAIN=CDA.CORP, CMD_LINE_ARGS=studio, ProgramFiles(x86)=C:\Program Files (x86), APP_HOME=D:\GW1010\ClaimCenter\, DEFAULT_JVM_OPTS="-Xmx1g", PATHEXT=.COM;.EXE;.BAT;.CMD;.VBS;.VBE;.JS;.JSE;.WSF;.WSH;.MSC, STXHD_PERFORMANCE=SPEED, ProgramData=C:\ProgramData, ProgramW6432=C:\Program Files, HOMEPATH=\Users\HarishB1, PROCESSOR_IDENTIFIER=Intel64 Family 6 Model 85 Stepping 4, GenuineIntel, ProgramFiles=C:\Program Files, PUBLIC=C:\Users\Public, windir=C:\Windows, _SKIP=2, LOCALAPPDATA=D:\Users\HarishB1\AppData\Local, USERDOMAIN=DOMAIN, LOGONSERVER=\\A049NP-DC, JAVA_HOME=C:\Program Files\Java\jdk1.8.0_201, PROMPT=$P$G, ANT_HOME=D:\Guidewire\apache-ant-1.8.2, APPDATA=D:\Users\HarishB1\AppData\Roaming, JAVA_EXE=C:\Program Files\Java\jdk1.8.0_201/bin/java.exe, STXHD_REGION=us-west-2, CommonProgramFiles=C:\Program Files\Common Files, Path=C:\Program Files\Java\jdk1.8.0_201\bin;C:\Windows\system32;C:\Windows;C:\Windows\System32\Wbem;C:\Windows\System32\WindowsPowerShell\v1.0\;C:\Program Files\Amazon\cfn-bootstrap\;C:\Program Files\Microsoft SQL Server\Client SDK\ODBC\130\Tools\Binn\;C:\Program Files (x86)\Microsoft SQL Server\140\Tools\Binn\;C:\Program Files\Microsoft SQL Server\140\Tools\Binn\;C:\Program Files\Microsoft SQL Server\140\DTS\Binn\;C:\Program Files (x86)\Microsoft SQL Server\Client SDK\ODBC\130\Tools\Binn\;C:\Program Files (x86)\Microsoft SQL Server\140\DTS\Binn\;C:\Program Files (x86)\Microsoft SQL Server\140\Tools\Binn\ManagementStudio\;C:\Program Files\Git\cmd;D:\Guidewire\apache-ant-1.8.2\bin;C:\Program Files\TortoiseGit\bin;D:\Users\HarishB1\AppData\Local\Microsoft\WindowsApps;, OS=Windows_NT, COMPUTERNAME=EC2AMAZ-0VHQIIS, PROCESSOR_REVISION=5504, CLASSPATH=D:\GW1010\ClaimCenter\\gradle\wrapper\gradle-wrapper.jar, CommonProgramW6432=C:\Program Files\Common Files, ComSpec=C:\Windows\system32\cmd.exe, APP_BASE_NAME=gwb, =D:=D:\GW1010\ClaimCenter, SystemRoot=C:\Windows, TEMP=D:\Users\HarishB1\AppData\Local\Temp\1, HOMEDRIVE=D:, USERPROFILE=D:\Users\HarishB1, TMP=D:\Users\HarishB1\AppData\Local\Temp\1, CommonProgramFiles(x86)=C:\Program Files (x86)\Common Files, NUMBER_OF_PROCESSORS=8}
2020-10-22T20:24:18.371+0530 [DEBUG] [org.gradle.launcher.daemon.server.exec.LogToClient] About to start relaying all logs to the client via the connection.
2020-10-22T20:24:18.371+0530 [INFO] [org.gradle.launcher.daemon.server.exec.LogToClient] The client will now receive all logging from the daemon (pid: 12060). The daemon log file: D:\GW1010\ClaimCenter\gradle\cache\daemon\6.0.1\daemon-12060.out.log
2020-10-22T20:24:18.374+0530 [DEBUG] [org.gradle.launcher.daemon.server.exec.RequestStopIfSingleUsedDaemon] Requesting daemon stop after processing Build{id=563412c0-3045-4ea8-a783-00cf3aac0817, currentDir=D:\GW1010\ClaimCenter}
2020-10-22T20:24:18.374+0530 [LIFECYCLE] [org.gradle.launcher.daemon.server.DaemonStateCoordinator] Daemon will be stopped at the end of the build stopping after processing
2020-10-22T20:24:18.374+0530 [DEBUG] [org.gradle.launcher.daemon.server.DaemonStateCoordinator] Stop as soon as idle requested. The daemon is busy: true
2020-10-22T20:24:18.374+0530 [DEBUG] [org.gradle.launcher.daemon.server.DaemonStateCoordinator] daemon stop has been requested. Sleeping until state changes.
2020-10-22T20:24:18.378+0530 [DEBUG] [org.gradle.launcher.daemon.server.exec.ExecuteBuild] The daemon has started executing the build.
2020-10-22T20:24:18.378+0530 [DEBUG] [org.gradle.launcher.daemon.server.exec.ExecuteBuild] Executing build with daemon context: DefaultDaemonContext[uid=ee0e379e-9838-4d9c-bf52-20552b0f7772,javaHome=C:\Program Files\Java\jdk1.8.0_201,daemonRegistryDir=D:\GW1010\ClaimCenter\gradle\cache\daemon,pid=12060,idleTimeout=120000,priority=NORMAL,daemonOpts=-Xms1g,-Xmx4g,-Dfile.encoding=windows-1252,-Duser.country=US,-Duser.language=en,-Duser.variant]
Importing POM com.guidewire.cc:cc-parent:10.1.0
Importing parent POM com.guidewire.cc:cc-all:10.1.0
Importing POM com.guidewire.cc:cc-all:10.1.0
Generating D:\GW1010\ClaimCenter\.idea\settings\idea.properties file
Generating D:\GW1010\ClaimCenter\.idea\settings\config\options\other.xml file
Generating D:\GW1010\ClaimCenter\.idea\settings\config\options\recentProjects.xml file
Using bundled jre: D:\GW1010\ClaimCenter\studio\sdk\jre\jre-win\bin\java.exe

Starting Guidewire Studio...

Deprecated Gradle features were used in this build, making it incompatible with Gradle 7.0.
Use '--warning-mode all' to show the individual deprecation warnings.
See https://docs.gradle.org/6.0.1/userguide/command_line_interface.html#sec:command_line_warnings

BUILD SUCCESSFUL in 11s
7 actionable tasks: 7 executed
2020-10-22T20:24:28.165+0530 [DEBUG] [org.gradle.launcher.daemon.server.exec.ExecuteBuild] The daemon has finished executing the build.
2020-10-22T20:24:28.173+0530 [DEBUG] [org.gradle.launcher.daemon.server.DaemonStateCoordinator] daemon stop has been requested. Sleeping until state changes.
2020-10-22T20:24:28.173+0530 [DEBUG] [org.gradle.launcher.daemon.server.DaemonStateCoordinator] Command execution: finished waiting for DaemonCommandExecution[command = Build{id=563412c0-3045-4ea8-a783-00cf3aac0817, currentDir=D:\GW1010\ClaimCenter}, connection = DefaultDaemonConnection: socket connection from /127.0.0.1:52129 to /127.0.0.1:52130]. Result org.gradle.launcher.daemon.server.DaemonStateCoordinator@109deab8 with state StopRequested
2020-10-22T20:24:28.173+0530 [DEBUG] [org.gradle.launcher.daemon.server.DaemonStateCoordinator] Command execution: completed DaemonCommandExecution[command = Build{id=563412c0-3045-4ea8-a783-00cf3aac0817, currentDir=D:\GW1010\ClaimCenter}, connection = DefaultDaemonConnection: socket connection from /127.0.0.1:52129 to /127.0.0.1:52130]
2020-10-22T20:24:28.173+0530 [DEBUG] [org.gradle.launcher.daemon.server.DaemonStateCoordinator] resetting idle timer
2020-10-22T20:24:28.174+0530 [DEBUG] [org.gradle.launcher.daemon.server.DaemonStateCoordinator] Marking daemon stopped due to command completed and stop requested. The daemon is running a build: false
2020-10-22T20:24:28.174+0530 [DEBUG] [org.gradle.launcher.daemon.server.DaemonStateCoordinator] daemon has stopped.
2020-10-22T20:24:28.174+0530 [DEBUG] [org.gradle.launcher.daemon.server.exec.ReturnResult] Daemon is dispatching the build result: Success[value=org.gradle.launcher.exec.BuildActionResult@70587ccd]
2020-10-22T20:24:28.174+0530 [DEBUG] [org.gradle.launcher.daemon.server.SynchronizedDispatchConnection] thread 17: dispatching class org.gradle.launcher.daemon.protocol.Success
2020-10-22T20:24:28.174+0530 [DEBUG] [org.gradle.launcher.daemon.server.Daemon] stop() called on daemon
2020-10-22T20:24:28.174+0530 [INFO] [org.gradle.launcher.daemon.server.Daemon] Stop requested. Daemon is removing its presence from the registry...
2020-10-22T20:24:28.174+0530 [DEBUG] [org.gradle.launcher.daemon.server.DefaultIncomingConnectionHandler] Finishing executing command: Build{id=563412c0-3045-4ea8-a783-00cf3aac0817, currentDir=D:\GW1010\ClaimCenter}
2020-10-22T20:24:28.174+0530 [DEBUG] [org.gradle.launcher.daemon.server.DaemonRegistryUpdater] Removing our presence to clients, eg. removing this address from the registry: [26c3c78d-8d66-45b5-9f39-95c5cb9b8f97 port:52129, addresses:[/127.0.0.1, /0:0:0:0:0:0:0:1]]
2020-10-22T20:24:28.175+0530 [DEBUG] [org.gradle.launcher.daemon.registry.PersistentDaemonRegistry] Removing daemon address: [26c3c78d-8d66-45b5-9f39-95c5cb9b8f97 port:52129, addresses:[/127.0.0.1, /0:0:0:0:0:0:0:1]]
2020-10-22T20:24:28.176+0530 [DEBUG] [org.gradle.launcher.daemon.server.SynchronizedDispatchConnection] thread 18: received class org.gradle.launcher.daemon.protocol.CloseInput
2020-10-22T20:24:28.177+0530 [DEBUG] [org.gradle.launcher.daemon.server.DefaultDaemonConnection] thread 18: Received IO message from client: org.gradle.launcher.daemon.protocol.CloseInput@1efde91e
2020-10-22T20:24:28.177+0530 [DEBUG] [org.gradle.launcher.daemon.server.SynchronizedDispatchConnection] thread 18: received class org.gradle.launcher.daemon.protocol.Finished
2020-10-22T20:24:28.177+0530 [DEBUG] [org.gradle.launcher.daemon.server.DefaultDaemonConnection] thread 18: Received non-IO message from client: org.gradle.launcher.daemon.protocol.Finished@3834c477
2020-10-22T20:24:28.177+0530 [DEBUG] [org.gradle.launcher.daemon.server.DefaultIncomingConnectionHandler] Received finished message: org.gradle.launcher.daemon.protocol.Finished@3834c477
2020-10-22T20:24:28.177+0530 [DEBUG] [org.gradle.launcher.daemon.server.SynchronizedDispatchConnection] thread 17: stopping connection
2020-10-22T20:24:28.178+0530 [DEBUG] [org.gradle.internal.remote.internal.inet.SocketConnection] Discarding EOFException: java.io.EOFException
2020-10-22T20:24:28.178+0530 [DEBUG] [org.gradle.launcher.daemon.server.SynchronizedDispatchConnection] thread 18: received null
2020-10-22T20:24:28.178+0530 [DEBUG] [org.gradle.launcher.daemon.server.DefaultDaemonConnection] thread 18: Received end-of-input from client.
2020-10-22T20:24:28.179+0530 [DEBUG] [org.gradle.launcher.daemon.server.SynchronizedDispatchConnection] thread 17: stopping connection
2020-10-22T20:24:28.250+0530 [DEBUG] [org.gradle.cache.internal.DefaultFileLockManager] Waiting to acquire exclusive lock on daemon addresses registry.
2020-10-22T20:24:28.251+0530 [DEBUG] [org.gradle.cache.internal.DefaultFileLockManager] Lock acquired on daemon addresses registry.
2020-10-22T20:24:28.252+0530 [DEBUG] [org.gradle.cache.internal.DefaultFileLockManager] Releasing lock on daemon addresses registry.
2020-10-22T20:24:28.252+0530 [DEBUG] [org.gradle.launcher.daemon.server.DaemonRegistryUpdater] Address removed from registry.
2020-10-22T20:24:28.253+0530 [DEBUG] [org.gradle.cache.internal.LockOnDemandCrossProcessCacheAccess] Releasing file lock for jars (D:\GW1010\ClaimCenter\gradle\cache\caches\jars-3)
2020-10-22T20:24:28.253+0530 [DEBUG] [org.gradle.cache.internal.DefaultFileLockManager] Releasing lock on jars (D:\GW1010\ClaimCenter\gradle\cache\caches\jars-3).
2020-10-22T20:24:28.254+0530 [DEBUG] [org.gradle.cache.internal.DefaultPersistentDirectoryStore] jars (D:\GW1010\ClaimCenter\gradle\cache\caches\jars-3) has last been fully cleaned up 1 hours ago
2020-10-22T20:24:28.255+0530 [DEBUG] [org.gradle.cache.internal.DefaultCacheAccess] Cache Generated Gradle JARs cache (D:\GW1010\ClaimCenter\gradle\cache\caches\6.0.1\generated-gradle-jars) was closed 0 times.
2020-10-22T20:24:28.255+0530 [DEBUG] [org.gradle.cache.internal.LockOnDemandCrossProcessCacheAccess] Releasing file lock for file hash cache (D:\GW1010\ClaimCenter\gradle\cache\caches\6.0.1\fileHashes)
2020-10-22T20:24:28.256+0530 [DEBUG] [org.gradle.cache.internal.btree.BTreePersistentIndexedCache] Closing cache fileHashes.bin (D:\GW1010\ClaimCenter\gradle\cache\caches\6.0.1\fileHashes\fileHashes.bin)
2020-10-22T20:24:28.256+0530 [DEBUG] [org.gradle.cache.internal.btree.BTreePersistentIndexedCache] Closing cache resourceHashesCache.bin (D:\GW1010\ClaimCenter\gradle\cache\caches\6.0.1\fileHashes\resourceHashesCache.bin)
2020-10-22T20:24:28.256+0530 [DEBUG] [org.gradle.cache.internal.DefaultFileLockManager] Releasing lock on file hash cache (D:\GW1010\ClaimCenter\gradle\cache\caches\6.0.1\fileHashes).
2020-10-22T20:24:28.256+0530 [DEBUG] [org.gradle.cache.internal.DefaultPersistentDirectoryStore] artifact cache (D:\GW1010\ClaimCenter\gradle\cache\caches\modules-2) has last been fully cleaned up 1 hours ago
2020-10-22T20:24:28.257+0530 [DEBUG] [org.gradle.cache.internal.DefaultCacheAccess] Cache artifact cache (D:\GW1010\ClaimCenter\gradle\cache\caches\modules-2) was closed 0 times.
2020-10-22T20:24:28.257+0530 [DEBUG] [org.gradle.cache.internal.DefaultPersistentDirectoryStore] Artifact transforms cache (D:\GW1010\ClaimCenter\gradle\cache\caches\transforms-2) has last been fully cleaned up 1 hours ago
2020-10-22T20:24:28.257+0530 [DEBUG] [org.gradle.cache.internal.DefaultCacheAccess] Cache Artifact transforms cache (D:\GW1010\ClaimCenter\gradle\cache\caches\transforms-2) was closed 0 times.
2020-10-22T20:24:28.257+0530 [DEBUG] [org.gradle.cache.internal.LockOnDemandCrossProcessCacheAccess] Releasing file lock for journal cache (D:\GW1010\ClaimCenter\gradle\cache\caches\journal-1)
2020-10-22T20:24:28.257+0530 [DEBUG] [org.gradle.cache.internal.btree.BTreePersistentIndexedCache] Closing cache file-access.bin (D:\GW1010\ClaimCenter\gradle\cache\caches\journal-1\file-access.bin)
2020-10-22T20:24:28.257+0530 [DEBUG] [org.gradle.cache.internal.DefaultFileLockManager] Releasing lock on journal cache (D:\GW1010\ClaimCenter\gradle\cache\caches\journal-1).
2020-10-22T20:24:28.258+0530 [DEBUG] [org.gradle.cache.internal.LockOnDemandCrossProcessCacheAccess] Releasing file lock for execution history cache (D:\GW1010\ClaimCenter\gradle\cache\caches\6.0.1\executionHistory)
2020-10-22T20:24:28.258+0530 [DEBUG] [org.gradle.cache.internal.DefaultFileLockManager] Releasing lock on execution history cache (D:\GW1010\ClaimCenter\gradle\cache\caches\6.0.1\executionHistory).
Daemon vm is shutting down... The daemon has exited normally or was terminated in response to a user interrupt.
2020-10-22T20:24:28.260+0530 [DEBUG] [org.gradle.launcher.daemon.registry.PersistentDaemonRegistry] Removing daemon address: [26c3c78d-8d66-45b5-9f39-95c5cb9b8f97 port:52129, addresses:[/127.0.0.1, /0:0:0:0:0:0:0:1]]
2020-10-22T20:24:28.266+0530 [DEBUG] [org.gradle.cache.internal.DefaultFileLockManager] Waiting to acquire exclusive lock on daemon addresses registry.
2020-10-22T20:24:28.266+0530 [DEBUG] [org.gradle.cache.internal.DefaultFileLockManager] Lock acquired on daemon addresses registry.
2020-10-22T20:24:28.267+0530 [DEBUG] [org.gradle.cache.internal.DefaultFileLockManager] Releasing lock on daemon addresses registry.
